1.066888490486145002e+02
2.246400253295898608e+01
1.916273511886596737e+01
1.701382093429565501e+01
1.584468104362487750e+01
1.484304278373718233e+01
1.380764466285705616e+01
1.276788446426391666e+01
1.209750299453735423e+01
1.173455041885375927e+01
1.097246831893920849e+01
1.071375794410705495e+01
1.023722563743591252e+01
9.901576585769653605e+00
9.593141212463379475e+00
9.332475957870483896e+00
9.416239271163940217e+00
8.969603414535521679e+00
8.838338274955749085e+00
8.745202527046203045e+00
8.669413313865661053e+00
8.502341065406799459e+00
8.348603286743163210e+00
8.402256946563721129e+00
8.277506599426269318e+00
8.187582321166992472e+00
8.111368689537048482e+00
8.240949940681456809e+00
7.980093455314635875e+00
7.764999842643737438e+00
7.690493097305298065e+00
7.631586189270019638e+00
7.596463294029235591e+00
7.533062586784362580e+00
7.514275550842285156e+00
7.427874417304992427e+00
7.231335430145263921e+00
7.267293329238891708e+00
7.201056752204895162e+00
7.185504922866821076e+00
7.218007550239563308e+00
7.123369164466858194e+00
7.154750118255615021e+00
7.132353925704956410e+00
7.124556298255920517e+00
7.073379068374634038e+00
6.963572301864624059e+00
6.904834909439086843e+00
6.891027407646179270e+00
6.850108351707458354e+00
