4.926915885925293281e+01
1.851647903442382770e+01
2.694914854049682518e+01
2.013073590087890636e+02
1.496393661499023509e+01
1.360899168014526417e+01
1.394486137390136804e+01
1.186328472137451229e+01
1.154197978973388672e+01
1.165060949325561523e+01
1.070304327011108469e+01
1.078408084869384709e+01
9.927228927612304688e+00
1.050402994155883718e+01
9.623089332580565980e+00
9.453499526977539702e+00
9.493479337692260600e+00
9.486805810928345295e+00
9.088673419952392862e+00
8.923035058975219869e+00
9.769491291046142223e+00
8.746701984405516939e+00
9.057894725799560121e+00
9.026952810287475870e+00
8.517698354721069620e+00
8.689414882659912465e+00
8.880349578857421378e+00
8.573830060958862020e+00
8.250205812454224130e+00
8.651546440124512571e+00
8.615850324630736523e+00
9.455951795578002361e+00
8.415444564819335227e+00
8.112301206588744762e+00
7.999387397766112962e+00
8.200618896484375142e+00
8.148061513900756836e+00
7.932316207885742543e+00
8.162697324752807404e+00
7.850709896087646911e+00
8.038023290634155771e+00
7.896546220779418590e+00
8.294902448654175586e+00
7.714083175659180114e+00
7.719222049713135192e+00
7.715943317413330504e+00
7.711676568984985103e+00
7.776644067764282298e+00
7.721108131408691122e+00
7.817918300628662109e+00
