2.369748134422302144e+02
2.671616199493408317e+01
1.820139533996582060e+01
1.629292200088501019e+01
1.504592211723327644e+01
1.403415132522582986e+01
1.311468493461608809e+01
1.227296116828918393e+01
1.164095623970031745e+01
1.099805063247680614e+01
1.058271814346313455e+01
1.011279636383056690e+01
9.867583045959472443e+00
9.603809394836424929e+00
9.324889116287231161e+00
9.134806675910949636e+00
8.980983357429504821e+00
8.822794981002807901e+00
8.694490361213684793e+00
8.495588669776916291e+00
8.388872885704040883e+00
8.384889345169067809e+00
8.339358739852904989e+00
8.149360632896422985e+00
8.164997506141663308e+00
8.130685114860535023e+00
8.035440788269042400e+00
7.982920732498168803e+00
7.932652401924133123e+00
7.951853537559509633e+00
7.969047203063964524e+00
7.608109283447265447e+00
7.468639907836913672e+00
7.395185232162475586e+00
7.424198169708251527e+00
7.423083443641662171e+00
7.411433744430541815e+00
7.371940069198608114e+00
7.321591310501098349e+00
7.357480869293213210e+00
7.212774147987365936e+00
7.075585975646972337e+00
7.094442453384399272e+00
7.042316222190857289e+00
7.067075295448303152e+00
6.924687013626098953e+00
6.959350991249084295e+00
6.943166384696960236e+00
6.870588512420654048e+00
6.803374114036560449e+00
